{"filesize": "", "keyword": "", "list": [{"ID": "50643af5cc284a9da80e60e25559a4ed", "EPS_NAME": "谢馥春(江苏)美妆实业股份有限公司", "PRODUCT_SN": "苏妆20200028", "CITY_CODE": "86", "XK_COMPLETE_DATE": {"date": 18, "day": 1, "hours": 0, "minutes": 0, "month": 0, "nanos": 0, "seconds": 0, "time": 1610899200000, "timezoneOffset": -480, "year": 121}, "XK_DATE": "2025-12-21", "QF_MANAGER_NAME": "江苏省药品监督管理局", "BUSINESS_LICENSE_NUMBER": "91321000MA20JUJC5C", "XC_DATE": "2021-01-18", "NUM_": 1}, {"ID": "43ac5421196c43c59090c0e9adb09e49", "EPS_NAME": "壹鼎众康（厦门）生物科技股份有限公司", "PRODUCT_SN": "闽妆20200006", "CITY_CODE": "136", "XK_COMPLETE_DATE": {"date": 18, "day": 1, "hours": 0, "minutes": 0, "month": 0, "nanos": 0, "seconds": 0, "time": 1610899200000, "timezoneOffset": -480, "year": 121}, "XK_DATE": "2025-05-07", "QF_MANAGER_NAME": "福建省药品监督管理局", "BUSINESS_LICENSE_NUMBER": "9135020007280266XN", "XC_DATE": "2021-01-18", "NUM_": 2}, {"ID": "f63f61fe04684c46a016a45eac8754fe", "EPS_NAME": "哈尔滨圣吉药业股份有限公司", "PRODUCT_SN": "黑妆20190003", "CITY_CODE": "266", "XK_COMPLETE_DATE": {"date": 18, "day": 1, "hours": 0, "minutes": 0, "month": 0, "nanos": 0, "seconds": 0, "time": 1610899200000, "timezoneOffset": -480, "year": 121}, "XK_DATE": "2024-04-11", "QF_MANAGER_NAME": "黑龙江省食品药品监督管理局", "BUSINESS_LICENSE_NUMBER": "912301997120425839", "XC_DATE": "2021-01-18", "NUM_": 3}, {"ID": "a98658572c494dd6992976916fc25084", "EPS_NAME": "义乌市凯琪化妆品有限公司", "PRODUCT_SN": "浙妆20160151", "CITY_CODE": null, "XK_COMPLETE_DATE": {"date": 15, "day": 5, "hours": 0, "minutes": 0, "month": 0, "nanos": 0, "seconds": 0, "time": 1610640000000, "timezoneOffset": -480, "year": 121}, "XK_DATE": "2021-11-13", "QF_MANAGER_NAME": "浙江省药品监督管理局", "BUSINESS_LICENSE_NUMBER": "913307827045797005", "XC_DATE": "2021-01-15", "NUM_": 4}, {"ID": "ad2590e3f50b49e9a0d768bf5c89c96e", "EPS_NAME": "河源唯缇科技有限公司", "PRODUCT_SN": "粤妆20210015", "CITY_CODE": null, "XK_COMPLETE_DATE": {"date": 15, "day": 5, "hours": 0, "minutes": 0, "month": 0, "nanos": 0, "seconds": 0, "time": 1610640000000, "timezoneOffset": -480, "year": 121}, "XK_DATE": "2026-01-14", "QF_MANAGER_NAME": "广东省药品监督管理局", "BUSINESS_LICENSE_NUMBER": "9144160031490925XR", "XC_DATE": "2021-01-15", "NUM_": 5}, {"ID": "6490126baa134a7ab639b27761a87597", "EPS_NAME": "汕头市雄业实业有限公司", "PRODUCT_SN": "粤妆20210014", "CITY_CODE": null, "XK_COMPLETE_DATE": {"date": 15, "day": 5, "hours": 0, "minutes": 0, "month": 0, "nanos": 0, "seconds": 0, "time": 1610640000000, "timezoneOffset": -480, "year": 121}, "XK_DATE": "2026-01-14", "QF_MANAGER_NAME": "广东省药品监督管理局", "BUSINESS_LICENSE_NUMBER": "91440514722918358R", "XC_DATE": "2021-01-15", "NUM_": 6}, {"ID": "603d2a2db48c4dbb96bade7760f8024e", "EPS_NAME": "扬州完美日用品有限公司", "PRODUCT_SN": "苏妆20160030", "CITY_CODE": "86", "XK_COMPLETE_DATE": {"date": 15, "day": 5, "hours": 0, "minutes": 0, "month": 0, "nanos": 0, "seconds": 0, "time": 1610640000000, "timezoneOffset": -480, "year": 121}, "XK_DATE": "2021-06-06", "QF_MANAGER_NAME": "江苏省药品监督管理局", "BUSINESS_LICENSE_NUMBER": "91321000759681200X", "XC_DATE": "2021-01-15", "NUM_": 7}, {"ID": "d7b991ee5f18430eb6714321b81c14aa", "EPS_NAME": "舒嘉丽（福建）日化有限公司", "PRODUCT_SN": "闽妆20170023", "CITY_CODE": "140", "XK_COMPLETE_DATE": {"date": 15, "day": 5, "hours": 0, "minutes": 0, "month": 0, "nanos": 0, "seconds": 0, "time": 1610640000000, "timezoneOffset": -480, "year": 121}, "XK_DATE": "2022-04-27", "QF_MANAGER_NAME": "福建省药品监督管理局", "BUSINESS_LICENSE_NUMBER": "91350681727936010F", "XC_DATE": "2021-01-15", "NUM_": 8}, {"ID": "bdde07ece0a04f4aba8ed03c0fdfde5e", "EPS_NAME": "黑龙江省世罕泉科技发展有限责任公司", "PRODUCT_SN": "黑妆20200001", "CITY_CODE": "267", "XK_COMPLETE_DATE": {"date": 15, "day": 5, "hours": 0, "minutes": 0, "month": 0, "nanos": 0, "seconds": 0, "time": 1610640000000, "timezoneOffset": -480, "year": 121}, "XK_DATE": "2025-01-13", "QF_MANAGER_NAME": "黑龙江省药品监督管理局", "BUSINESS_LICENSE_NUMBER": "912302307692256559", "XC_DATE": "2021-01-15", "NUM_": 9}, {"ID": "781ff5e5d4034cb395f43a93b92f71b1", "EPS_NAME": "广东欧美莲化妆品有限公司", "PRODUCT_SN": "粤妆20200131", "CITY_CODE": null, "XK_COMPLETE_DATE": {"date": 14, "day": 4, "hours": 0, "minutes": 0, "month": 0, "nanos": 0, "seconds": 0, "time": 1610553600000, "timezoneOffset": -480, "year": 121}, "XK_DATE": "2025-07-28", "QF_MANAGER_NAME": "广东省药品监督管理局", "BUSINESS_LICENSE_NUMBER": "91440513MA54PCTN16", "XC_DATE": "2021-01-14", "NUM_": 10}, {"ID": "ad56d4e14f3545f883300e3051124188", "EPS_NAME": "广东美宝化妆品有限公司", "PRODUCT_SN": "粤妆20160105", "CITY_CODE": null, "XK_COMPLETE_DATE": {"date": 14, "day": 4, "hours": 0, "minutes": 0, "month": 0, "nanos": 0, "seconds": 0, "time": 1610553600000, "timezoneOffset": -480, "year": 121}, "XK_DATE": "2026-01-13", "QF_MANAGER_NAME": "广东省药品监督管理局", "BUSINESS_LICENSE_NUMBER": "91440514617580412C", "XC_DATE": "2021-01-14", "NUM_": 11}, {"ID": "58cd232cddb640eeb6d52b6da4a3f711", "EPS_NAME": "诺斯贝尔化妆品股份有限公司", "PRODUCT_SN": "粤妆20160081", "CITY_CODE": null, "XK_COMPLETE_DATE": {"date": 14, "day": 4, "hours": 0, "minutes": 0, "month": 0, "nanos": 0, "seconds": 0, "time": 1610553600000, "timezoneOffset": -480, "year": 121}, "XK_DATE": "2021-05-24", "QF_MANAGER_NAME": "广东省药品监督管理局", "BUSINESS_LICENSE_NUMBER": "91442000758332180E", "XC_DATE": "2021-01-14", "NUM_": 12}, {"ID": "b33dda2c679c479bbe3d9162c8a2f364", "EPS_NAME": "科玛化妆品（苏州）有限公司高新区北分公司", "PRODUCT_SN": "苏妆20210005", "CITY_CODE": "84", "XK_COMPLETE_DATE": {"date": 14, "day": 4, "hours": 0, "minutes": 0, "month": 0, "nanos": 0, "seconds": 0, "time": 1610553600000, "timezoneOffset": -480, "year": 121}, "XK_DATE": "2026-01-13", "QF_MANAGER_NAME": "江苏省药品监督管理局", "BUSINESS_LICENSE_NUMBER": "91320505MA21QW7B5T", "XC_DATE": "2021-01-14", "NUM_": 13}, {"ID": "7da3f19daa3243eab4b2c53f11b1bb4c", "EPS_NAME": "江苏悦智生物科技有限公司", "PRODUCT_SN": "苏妆20210004", "CITY_CODE": "91", "XK_COMPLETE_DATE": {"date": 14, "day": 4, "hours": 0, "minutes": 0, "month": 0, "nanos": 0, "seconds": 0, "time": 1610553600000, "timezoneOffset": -480, "year": 121}, "XK_DATE": "2026-01-13", "QF_MANAGER_NAME": "江苏省药品监督管理局", "BUSINESS_LICENSE_NUMBER": "91320412346102928F", "XC_DATE": "2021-01-14", "NUM_": 14}, {"ID": "087bcd4539b64ea993af259be86c167b", "EPS_NAME": "新岚（镇江）化妆品有限公司", "PRODUCT_SN": "苏妆20210003", "CITY_CODE": "83", "XK_COMPLETE_DATE": {"date": 14, "day": 4, "hours": 0, "minutes": 0, "month": 0, "nanos": 0, "seconds": 0, "time": 1610553600000, "timezoneOffset": -480, "year": 121}, "XK_DATE": "2026-01-13", "QF_MANAGER_NAME": "江苏省药品监督管理局", "BUSINESS_LICENSE_NUMBER": "91321191MA201FNJ9A", "XC_DATE": "2021-01-14", "NUM_": 15}], "orderBy": "createDate", "orderType": "desc", "pageCount": 365, "pageNumber": 1, "pageSize": 15, "property": "", "totalCount": 5464}